<?xml version="1.0" encoding="utf-8"?>
<!-- Generator: Adobe Illustrator 18.0.0, SVG Export Plug-In . SVG Version: 6.00 Build 0)  -->
<!DOCTYPE svg PUBLIC "-//W3C//DTD SVG 1.1//EN" "http://www.w3.org/Graphics/SVG/1.1/DTD/svg11.dtd">
<svg version="1.1" id="Layer_1" xmlns="http://www.w3.org/2000/svg" xmlns:xlink="http://www.w3.org/1999/xlink" x="0px" y="0px"
	 viewBox="0 0 16 16" enable-background="new 0 0 16 16" xml:space="preserve">
<g id="Layer_1_1_">
	<g>
		<path fill="#FFFFFF" d="M5.3,10.7c0-0.1,0-0.2-0.1-0.2c-0.1,0-0.1,0.1-0.1,0.3c0,0.1,0,0.3,0.1,0.3c0.1,0,0.1-0.1,0.1-0.2l0.2,0
			c0,0.1,0,0.3-0.3,0.3c-0.3,0-0.3-0.3-0.3-0.5c0-0.2,0.1-0.5,0.3-0.5c0.2,0,0.3,0.2,0.3,0.3L5.3,10.7z"/>
		<path fill="#FFFFFF" d="M5.8,10v1.2H5.6V10H5.8z"/>
		<path fill="#FFFFFF" d="M6.5,10.8c0,0.2,0,0.5-0.3,0.5c-0.3,0-0.3-0.2-0.3-0.5c0-0.2,0.1-0.5,0.3-0.5C6.5,10.3,6.5,10.6,6.5,10.8z
			 M6.1,10.8c0,0.2,0,0.3,0.1,0.3c0.1,0,0.1-0.1,0.1-0.3c0-0.2,0-0.3-0.1-0.3C6.1,10.5,6.1,10.6,6.1,10.8z"/>
		<path fill="#FFFFFF" d="M6.8,10.4v0.6c0,0.1,0,0.2,0.1,0.2c0.1,0,0.1-0.2,0.1-0.3v-0.4h0.2v0.9H7.1v-0.1c0,0.1-0.1,0.2-0.2,0.2
			c-0.2,0-0.2-0.2-0.2-0.3v-0.6L6.8,10.4L6.8,10.4z"/>
		<path fill="#FFFFFF" d="M8,10v1.2H7.8v-0.1c0,0.1-0.1,0.1-0.2,0.1c-0.2,0-0.3-0.3-0.3-0.4c0-0.3,0.1-0.5,0.3-0.5
			c0.1,0,0.2,0.1,0.2,0.1V10H8z M7.8,10.7c0-0.1,0-0.1,0-0.2c0,0-0.1-0.1-0.1-0.1c-0.1,0-0.1,0.2-0.1,0.3c0,0.1,0,0.3,0.1,0.3
			c0,0,0.1,0,0.1-0.1c0,0,0-0.1,0-0.2V10.7z"/>
		<path fill="#FFFFFF" d="M8.4,10.6c0-0.2,0.2-0.2,0.3-0.2c0.1,0,0.2,0,0.2,0.1C9,10.5,9,10.6,9,10.7V11c0,0.1,0,0.2,0,0.2H8.8
			c0,0,0-0.1,0-0.1c0,0.1-0.1,0.2-0.2,0.2c-0.1,0-0.2-0.1-0.2-0.3c0-0.1,0.1-0.2,0.2-0.3c0.1,0,0.2,0,0.3,0v0c0-0.1,0-0.2-0.1-0.2
			c-0.1,0-0.1,0.1-0.1,0.1L8.4,10.6z M8.8,10.8C8.8,10.8,8.8,10.8,8.8,10.8c-0.3,0-0.3,0.1-0.3,0.2c0,0.1,0.1,0.1,0.1,0.1
			C8.7,11.1,8.8,11,8.8,10.8C8.8,10.8,8.8,10.8,8.8,10.8z"/>
		<path fill="#FFFFFF" d="M9.6,10.7c0-0.1,0-0.2-0.1-0.2c-0.1,0-0.1,0.1-0.1,0.3c0,0.1,0,0.3,0.1,0.3c0.1,0,0.1-0.1,0.1-0.2l0.2,0
			c0,0.1,0,0.3-0.3,0.3c-0.3,0-0.3-0.3-0.3-0.5c0-0.2,0.1-0.5,0.3-0.5c0.2,0,0.3,0.2,0.3,0.3L9.6,10.7z"/>
		<path fill="#FFFFFF" d="M10.3,10.7c0-0.1,0-0.2-0.1-0.2c-0.1,0-0.1,0.1-0.1,0.3c0,0.1,0,0.3,0.1,0.3c0.1,0,0.1-0.1,0.1-0.2l0.2,0
			c0,0.1,0,0.3-0.3,0.3c-0.3,0-0.3-0.3-0.3-0.5c0-0.2,0.1-0.5,0.3-0.5c0.2,0,0.3,0.2,0.3,0.3L10.3,10.7z"/>
		<path fill="#FFFFFF" d="M11.2,10.8c0,0.2,0,0.5-0.3,0.5c-0.3,0-0.3-0.2-0.3-0.5c0-0.2,0.1-0.5,0.3-0.5
			C11.1,10.3,11.2,10.6,11.2,10.8z M10.7,10.8c0,0.2,0,0.3,0.1,0.3c0.1,0,0.1-0.1,0.1-0.3c0-0.2,0-0.3-0.1-0.3
			C10.8,10.5,10.7,10.6,10.7,10.8z"/>
		<path fill="#FFFFFF" d="M11.5,10.4v0.6c0,0.1,0,0.2,0.1,0.2c0.1,0,0.1-0.2,0.1-0.3v-0.4h0.2v0.9h-0.2v-0.1c0,0.1-0.1,0.2-0.2,0.2
			c-0.2,0-0.2-0.2-0.2-0.3v-0.6L11.5,10.4L11.5,10.4z"/>
		<path fill="#FFFFFF" d="M12,10.4h0.2v0.1c0,0,0.1-0.2,0.2-0.2c0.1,0,0.1,0,0.2,0.1c0,0.1,0,0.1,0,0.2v0.6h-0.2v-0.5
			c0-0.1,0-0.2-0.1-0.2c-0.1,0-0.1,0.2-0.1,0.3v0.5H12C12,11.2,12,10.4,12,10.4z"/>
		<path fill="#FFFFFF" d="M13.1,10.5H13v0.4c0,0.2,0,0.2,0.1,0.2c0,0,0.1,0,0.1,0v0.1c0,0-0.1,0-0.1,0c-0.2,0-0.2-0.2-0.2-0.3v-0.4
			h-0.1v-0.1h0.1l0-0.2l0.2,0v0.2h0.2L13.1,10.5L13.1,10.5z"/>
		<path fill="#FFFFFF" d="M13.3,10.2V10h0.2v0.2H13.3z M13.4,10.4v0.9h-0.2v-0.9C13.3,10.4,13.4,10.4,13.4,10.4z"/>
		<path fill="#FFFFFF" d="M13.6,10.4h0.2v0.1c0,0,0.1-0.2,0.2-0.2c0.1,0,0.1,0,0.2,0.1c0,0.1,0,0.1,0,0.2v0.6H14v-0.5
			c0-0.1,0-0.2-0.1-0.2c-0.1,0-0.1,0.2-0.1,0.3v0.5h-0.2L13.6,10.4L13.6,10.4z"/>
		<path fill="#FFFFFF" d="M15,10.3C15,10.3,15,10.3,15,10.3c-0.1,0-0.1,0-0.1,0.1c0,0.1,0.1,0.1,0.1,0.2c0,0.1-0.1,0.3-0.3,0.3
			c0,0-0.1,0-0.1,0c0,0-0.1,0-0.1,0.1c0,0.1,0,0.1,0.2,0.1c0.2,0,0.3,0,0.3,0.2c0,0.2-0.2,0.3-0.4,0.3c-0.1,0-0.3,0-0.3-0.2
			c0-0.1,0.1-0.2,0.1-0.2c0,0-0.1-0.1-0.1-0.1c0-0.1,0.1-0.2,0.1-0.2c0,0-0.1-0.1-0.1-0.2c0-0.2,0.1-0.3,0.3-0.3c0.1,0,0.1,0,0.2,0
			c0-0.1,0-0.2,0.2-0.2c0,0,0,0,0.1,0L15,10.3z M14.4,11.3c0,0.1,0.1,0.1,0.2,0.1c0.1,0,0.2,0,0.2-0.1c0-0.1-0.1-0.1-0.1-0.1
			c0,0-0.2,0-0.2,0C14.5,11.2,14.4,11.2,14.4,11.3z M14.5,10.6c0,0,0,0.2,0.1,0.2c0.1,0,0.1-0.1,0.1-0.2c0,0,0-0.2-0.1-0.2
			C14.5,10.4,14.5,10.5,14.5,10.6z"/>
	</g>
	<path fill="#FFFFFF" d="M1.1,6.9h1.2v0.6H1.7V8h0.5v0.5H1.7v1H1.1V6.9z"/>
	<path fill="#FFFFFF" d="M2.4,7.4H3c0.2,0,0.4,0.1,0.6,0.2C3.7,7.7,3.7,7.8,3.7,8c0,0.1,0,0.2-0.1,0.3C3.6,8.5,3.5,8.5,3.4,8.6
		l0.4,1H3.3l-0.4-1h0v1H2.4V7.4z M2.9,7.8v0.5c0.2,0,0.3-0.1,0.3-0.2c0-0.1,0-0.2-0.1-0.2C3.1,7.8,3,7.8,2.9,7.8z"/>
	<path fill="#FFFFFF" d="M3.9,7.4h1v0.5H4.4v0.4h0.4v0.5H4.4v0.4h0.5v0.5h-1V7.4z"/>
	<path fill="#FFFFFF" d="M6,7.4h0.5v0.8h0.4V7.4h0.5v2.2H6.9V8.7H6.5v0.9H6V7.4z"/>
	<path fill="#FFFFFF" d="M7.5,6.9h0.6c0.4,0,0.6,0.1,0.8,0.2C9,7.3,9.1,7.5,9.1,7.7c0,0.2-0.1,0.4-0.3,0.6C9,8.3,9.2,8.5,9.2,8.8
		c0,0.2-0.1,0.4-0.2,0.6C8.8,9.5,8.6,9.6,8.3,9.6H7.5L7.5,6.9L7.5,6.9z M8.1,7.4V8c0.3,0,0.4-0.1,0.4-0.3c0-0.1,0-0.2-0.1-0.2
		C8.4,7.5,8.2,7.4,8.1,7.4z M8.1,8.5v0.6c0.2,0,0.3,0,0.3-0.1c0.1,0,0.1-0.1,0.1-0.2C8.6,8.6,8.4,8.5,8.1,8.5
		C8.2,8.5,8.1,8.5,8.1,8.5z"/>
	<path fill="#FFFFFF" d="M10,9.6c-0.3,0-0.5-0.1-0.6-0.3C9.3,9.1,9.2,8.8,9.2,8.4c0-0.4,0.1-0.6,0.2-0.8C9.5,7.4,9.7,7.3,10,7.3
		c0.3,0,0.5,0.1,0.6,0.3c0.1,0.2,0.2,0.5,0.2,0.9c0,0.4-0.1,0.7-0.2,0.9C10.5,9.5,10.3,9.6,10,9.6z M10,7.8C9.8,7.8,9.7,8,9.7,8.4
		c0,0.3,0,0.5,0.1,0.5c0,0.1,0.1,0.1,0.2,0.1c0.1,0,0.2,0,0.2-0.1c0-0.1,0.1-0.3,0.1-0.5C10.3,8,10.2,7.8,10,7.8z"/>
	<path fill="#FFFFFF" d="M11.7,9.6c-0.3,0-0.5-0.1-0.6-0.3c-0.1-0.2-0.2-0.5-0.2-0.9c0-0.4,0.1-0.6,0.2-0.8c0.1-0.2,0.3-0.3,0.6-0.3
		c0.3,0,0.5,0.1,0.6,0.3c0.1,0.2,0.2,0.5,0.2,0.9c0,0.4-0.1,0.7-0.2,0.9C12.1,9.5,11.9,9.6,11.7,9.6z M11.6,7.8
		c-0.2,0-0.3,0.2-0.3,0.6c0,0.3,0,0.5,0.1,0.5c0,0.1,0.1,0.1,0.2,0.1c0.1,0,0.2,0,0.2-0.1c0.1-0.1,0.1-0.3,0.1-0.5
		C11.9,8,11.8,7.8,11.6,7.8z"/>
	<path fill="#FFFFFF" d="M12.5,7.4H13v1h0l0.5-1H14l-0.5,1.1L14,9.6h-0.5L13,8.7h0v0.9h-0.5L12.5,7.4L12.5,7.4z"/>
	<path fill="#FFFFFF" d="M14,9.5V9c0.2,0.1,0.3,0.1,0.4,0.1c0.1,0,0.1,0,0.1-0.1c0,0,0.1-0.1,0.1-0.1c0,0,0-0.1,0-0.1
		c0,0-0.1-0.1-0.2-0.1c-0.2-0.1-0.3-0.3-0.4-0.4C14,8.2,13.9,8.1,13.9,8c0-0.2,0.1-0.3,0.2-0.5c0.1-0.1,0.3-0.2,0.5-0.2
		c0.1,0,0.3,0,0.4,0.1v0.5c-0.1-0.1-0.3-0.1-0.4-0.1c-0.1,0-0.1,0-0.1,0c0,0-0.1,0.1-0.1,0.1c0,0.1,0.1,0.2,0.2,0.3
		c0.1,0.1,0.2,0.2,0.3,0.3c0.1,0.1,0.2,0.3,0.2,0.4c0,0.2-0.1,0.3-0.2,0.5c-0.1,0.1-0.3,0.2-0.5,0.2C14.3,9.6,14.2,9.6,14,9.5z"/>
	<path fill="#FFFFFF" d="M6,9L5.5,8.3C5,7.6,6.1,7.1,6.1,7.1L6,7c0,0-1.8,0.4-1,1.4l0.5,0.8c0.2,0.3-0.1,0.4-0.3,0.4
		c-0.2,0-0.3,0-0.3,0v0.1h0.2C5.5,9.8,6.4,9.7,6,9z"/>
	<g>
		<path fill="#648C0F" d="M11.9,6.3c0,0-0.2,0.1-0.7,0.8c-0.1,0.1-0.1,0.1-0.1,0.1s0,0.1,0.2,0.1c0,0,0.3-0.7,0.6-0.9L11.9,6.3z"/>
		<path fill="#86C620" d="M11.6,6.7c0,0,0.1-2,1.8-2c1.4,0,1.8-0.5,1.8-0.5S15.2,7.1,11.6,6.7z"/>
		<path fill="#648C0F" d="M11.8,6.5c0,0,0.7-1,1.5-1.1c0.8-0.1,1.3-0.5,1.3-0.5s-0.5,0.6-1.4,0.7C12.5,5.7,11.8,6.5,11.8,6.5z"/>
	</g>
</g>
<g id="Layer_4">
</g>
</svg>
