<?xml version="1.0" encoding="utf-8"?>
<!-- Generator: Adobe Illustrator 18.1.1, SVG Export Plug-In . SVG Version: 6.00 Build 0)  -->
<!DOCTYPE svg PUBLIC "-//W3C//DTD SVG 1.1//EN" "http://www.w3.org/Graphics/SVG/1.1/DTD/svg11.dtd">
<svg version="1.1" id="Chevron_thin_down" xmlns="http://www.w3.org/2000/svg" xmlns:xlink="http://www.w3.org/1999/xlink" x="0px"
	 y="0px" viewBox="0 0 20 20" enable-background="new 0 0 20 20" xml:space="preserve" width="15px" >
<path d="M17.418,6.109c0.272-0.268,0.709-0.268,0.979,0c0.27,0.268,0.271,0.701,0,0.969l-7.908,7.83
	c-0.27,0.268-0.707,0.268-0.979,0l-7.908-7.83c-0.27-0.268-0.27-0.701,0-0.969c0.271-0.268,0.709-0.268,0.979,0L10,13.25
	L17.418,6.109z"/>
</svg>
